0.000000000000000000e+00,4.672896977902075977e-02,5.184804901515374653e-02,8.539822971062729917e-02,0.000000000000000000e+00,0.000000000000000000e+00
0.000000000000000000e+00,2.803738186741312061e-02,3.850102649640130270e-02,8.097345096914403129e-02,0.000000000000000000e+00,4.419941712226536576e-03
0.000000000000000000e+00,1.869158791160763916e-02,2.669404503750492930e-02,7.256637136032577373e-02,0.000000000000000000e+00,8.844320003336111902e-03
0.000000000000000000e+00,1.869158791160763916e-02,1.540041059856051345e-02,3.362831843527291920e-02,0.000000000000000000e+00,1.326980743916644605e-02
0.000000000000000000e+00,3.271027884531419599e-02,4.004106755625737313e-02,4.292035379238780257e-02,0.000000000000000000e+00,1.769352024344356469e-02
0.000000000000000000e+00,1.869158791160763916e-02,4.260780265601744887e-02,3.805309717675618708e-02,0.000000000000000000e+00,2.211834219244144389e-02
0.000000000000000000e+00,1.869158791160763916e-02,3.028747417716902077e-02,2.743362819719634069e-02,0.000000000000000000e+00,2.654405145721593084e-02
0.000000000000000000e+00,1.869158791160763916e-02,2.874743311731299891e-02,2.566371670060302659e-02,0.000000000000000000e+00,3.096776426149304776e-02
6.666664444445026538e-02,1.869158791160763916e-02,3.747433245649729044e-02,3.407079630942123905e-02,0.000000000000000000e+00,3.539258621049092696e-02
3.333332222222631924e-01,1.869158791160763916e-02,6.776180663366630774e-02,6.327433600321089036e-02,0.000000000000000000e+00,3.981851730420956498e-02
3.333332222222631924e-01,1.869158791160763916e-02,5.698151921467394659e-02,5.486725639439264668e-02,0.000000000000000000e+00,4.424200827954253429e-02
3.333332222222631924e-01,1.869158791160763916e-02,5.749486623462595619e-02,5.530973426854100122e-02,0.000000000000000000e+00,4.866683022854041002e-02
3.333332222222631924e-01,1.869158791160763916e-02,6.776180663366630774e-02,6.460176962565589154e-02,0.000000000000000000e+00,5.309276132225904804e-02
3.333332222222631924e-01,1.869158791160763916e-02,1.031827510103554835e-01,9.469026506774218255e-02,0.000000000000000000e+00,5.751647412653616842e-02
3.333332222222631924e-01,1.869158791160763916e-02,1.078028741899236809e-01,1.022123889282637588e-01,0.000000000000000000e+00,6.194129607553405109e-02
3.333332222222631924e-01,1.869158791160763916e-02,9.137576955145911006e-02,9.823008806092881073e-02,0.000000000000000000e+00,6.636700534030853804e-02
3.333332222222631924e-01,1.869158791160763916e-02,4.004106755625737313e-02,6.725663687054583839e-02,0.000000000000000000e+00,7.079071814458565148e-02
3.333332222222631924e-01,1.869158791160763916e-02,2.720739205745693542e-02,3.539822993186623329e-02,0.000000000000000000e+00,7.521576192252768522e-02
2.999999000000321270e-01,2.803738186741312061e-02,3.747433245649729044e-02,3.451327418356955890e-02,0.000000000000000000e+00,7.964124935835802110e-02
3.333332222222631924e-01,6.542055769062839199e-02,6.211498941419410502e-02,5.929203513587594926e-02,0.000000000000000000e+00,8.406496216263513455e-02
2.666665777778129409e-01,5.607476373482291748e-02,7.443531789304252966e-02,6.991150411543582688e-02,0.000000000000000000e+00,8.848934045374470814e-02
1.333332888889005308e-01,4.205607280111636065e-02,7.751540001275461500e-02,7.256637136032577373e-02,0.000000000000000000e+00,9.291527154746334616e-02
3.333332222223105851e-02,0.000000000000000000e+00,1.057494861101156147e-01,9.734513231263217103e-02,0.000000000000000000e+00,9.733876252279631547e-02
9.999996666668133083e-02,2.803738186741312061e-02,1.016427099504994686e-01,9.336283144529718137e-02,0.000000000000000000e+00,1.017635844717941912e-01
6.666664444445026538e-02,3.271027884531419599e-02,9.137576955145911006e-02,8.407079608818229799e-02,0.000000000000000000e+00,1.061888500786803829e-01
0.000000000000000000e+00,5.140186675692184209e-02,4.979466093534572202e-02,5.132743340120605319e-02,0.000000000000000000e+00,1.106123410540133523e-01
0.000000000000000000e+00,6.542055769062839199e-02,6.930184769352237817e-02,6.725663687054583839e-02,0.000000000000000000e+00,1.150371630030112280e-01
3.333332222223105851e-02,6.542055769062839199e-02,5.954825431443402928e-02,6.592920324810083721e-02,0.000000000000000000e+00,1.194628722677857080e-01
0.000000000000000000e+00,1.869158791160763916e-02,7.186858279328245391e-02,6.681415899639751854e-02,0.000000000000000000e+00,1.238863632431186773e-01
0.000000000000000000e+00,1.869158791160763916e-02,7.084188875337839308e-02,6.681415899639751854e-02,0.000000000000000000e+00,1.283111851921165669e-01
3.333332222223105851e-02,6.074766071272731660e-02,9.086242253150710046e-02,8.407079608818229799e-02,0.000000000000000000e+00,1.327368944568910469e-01
3.333332222223105851e-02,6.542055769062839199e-02,8.932238147165104392e-02,8.274336246573733844e-02,0.000000000000000000e+00,1.371601636032798721e-01
6.666664444445026538e-02,6.542055769062839199e-02,7.802874703270666623e-02,7.345132710862245506e-02,0.000000000000000000e+00,1.415845418943894318e-01
0.000000000000000000e+00,6.542055769062839199e-02,7.340862385313852434e-02,6.902654836713914555e-02,0.000000000000000000e+00,1.460102511591639118e-01
0.000000000000000000e+00,7.943924862433496270e-02,7.854209405265867583e-02,8.407079608818229799e-02,0.000000000000000000e+00,1.504332984766085790e-01
3.333332222223105851e-02,7.476635164643055664e-02,6.365503047405017545e-02,1.048672561731537473e-01,0.000000000000000000e+00,1.548581204256064547e-01
0.000000000000000000e+00,1.028037335138436842e-01,5.030800795529772468e-02,8.805309695551724603e-02,0.000000000000000000e+00,1.592836078614368045e-01
3.333332222223105851e-02,1.121495274696491518e-01,4.158110861611343662e-02,5.221238914950269289e-02,0.000000000000000000e+00,1.637066551788814717e-01
0.000000000000000000e+00,1.121495274696491518e-01,5.698151921467394659e-02,5.442477852024432683e-02,0.000000000000000000e+00,1.681312552989351894e-01
0.000000000000000000e+00,1.121495274696491518e-01,7.443531789304252966e-02,6.991150411543582688e-02,0.000000000000000000e+00,1.725565209058213811e-01
3.333332222223105851e-02,1.214953214254513164e-01,8.059548213246674198e-02,7.522123860521577610e-02,0.000000000000000000e+00,1.769800118811543366e-01
0.000000000000000000e+00,1.121495274696491518e-01,7.597535895289860008e-02,7.123893773788078643e-02,0.000000000000000000e+00,1.814046120012080543e-01
9.999996666668133083e-02,1.261682184033524057e-01,6.622176557381025119e-02,6.283185812906257051e-02,0.000000000000000000e+00,1.858303212659825621e-01
9.999996666668133083e-02,1.214953214254513164e-01,4.774127285553764893e-02,4.424778741483280375e-02,0.000000000000000000e+00,1.902533685834272015e-01
1.666666111111315962e-01,1.355140123591578871e-01,3.388090331683315387e-02,3.008849544208629101e-02,0.000000000000000000e+00,1.946777468745367889e-01
2.333332555555818755e-01,1.308411153812567840e-01,1.642710463846457081e-02,1.946902646252640992e-02,0.000000000000000000e+00,1.991030124814229807e-01
3.333332222222631924e-01,1.495327032928644440e-01,2.977412715721701464e-02,4.203539804409116981e-02,0.000000000000000000e+00,2.035262816278117781e-01
3.333332222222631924e-01,1.588784972486665947e-01,4.209445563606543927e-02,5.796460151343095502e-02,0.000000000000000000e+00,2.079506599189213656e-01
2.999999000000321270e-01,1.495327032928644440e-01,6.981519471347438777e-02,6.548672537395253124e-02,0.000000000000000000e+00,2.123761473547516876e-01
3.333332222222631924e-01,1.588784972486665947e-01,5.800821325457795885e-02,5.530973426854100122e-02,0.000000000000000000e+00,2.168000819879729590e-01
3.333332222222631924e-01,1.588784972486665947e-01,3.131416821707307813e-02,2.920353969378965478e-02,0.000000000000000000e+00,2.212246821080267045e-01
3.333332222222631924e-01,1.588784972486665947e-01,0.000000000000000000e+00,0.000000000000000000e+00,0.000000000000000000e+00,2.256501695438570265e-01
3.333332222222631924e-01,1.588784972486665947e-01,3.644763841659323655e-02,3.362831843527291920e-02,0.000000000000000000e+00,2.300736605191899820e-01
3.333332222222631924e-01,1.588784972486665947e-01,5.390143709496181962e-02,6.150442450661757626e-02,0.000000000000000000e+00,2.344984824681878854e-01
3.333332222222631924e-01,1.588784972486665947e-01,6.365503047405017545e-02,8.938053057796223333e-02,0.000000000000000000e+00,2.389241917329623655e-01
3.333332222222631924e-01,1.588784972486665947e-01,3.490759735673721470e-02,8.318584033988565829e-02,0.000000000000000000e+00,2.433479045372394789e-01
3.333332222222631924e-01,1.588784972486665947e-01,2.515400397764886234e-02,4.159292016994280833e-02,0.000000000000000000e+00,2.477722828283490664e-01
3.333332222222631924e-01,1.588784972486665947e-01,4.466119073582552196e-02,4.336283166653612242e-02,0.000000000000000000e+00,2.521977702641793884e-01
3.333332222222631924e-01,1.588784972486665947e-01,7.032854173342638349e-02,6.637168112224919869e-02,0.000000000000000000e+00,2.566217048974006598e-01
3.333332222222631924e-01,1.588784972486665947e-01,8.880903445169903432e-02,8.274336246573733844e-02,0.000000000000000000e+00,2.610458613595660893e-01
3.333332222222631924e-01,1.915887760939807838e-01,7.443531789304252966e-02,6.991150411543582688e-02,0.000000000000000000e+00,2.654715706243405693e-01
3.333332222222631924e-01,1.915887760939807838e-01,9.856262783078734158e-02,9.070796420040723451e-02,0.000000000000000000e+00,2.698952834286176827e-01
3.333332222222631924e-01,1.822429821381786330e-01,1.052361390901635635e-01,9.778761018678049088e-02,0.000000000000000000e+00,2.743198835486714282e-01
3.333332222222631924e-01,2.009345700497862652e-01,1.201232026687720639e-01,1.097345127887853211e-01,0.000000000000000000e+00,2.787453709845017502e-01
3.333332222222631924e-01,1.775700851602775576e-01,7.597535895289860008e-02,8.805309695551724603e-02,0.000000000000000000e+00,2.831688619598347056e-01
3.333332222222631924e-01,1.822429821381786330e-01,5.698151921467394659e-02,5.530973426854100122e-02,0.000000000000000000e+00,2.875932402509442931e-01
3.333332222222631924e-01,2.056074670276873684e-01,5.698151921467394659e-02,5.575221214268932107e-02,0.000000000000000000e+00,2.920189495157187731e-01
3.333332222222631924e-01,2.056074670276873684e-01,1.062628331300676104e-01,9.734513231263217103e-02,0.000000000000000000e+00,2.964424404910517286e-01
3.333332222222631924e-01,2.149532609834928221e-01,1.791581099632540974e-01,1.823008841491111365e-01,0.000000000000000000e+00,3.008668187821613160e-01
3.333332222222631924e-01,2.102803640055884438e-01,2.253593417589356829e-01,2.115044238429008017e-01,0.000000000000000000e+00,3.052923062179916380e-01
3.333332222222631924e-01,2.383177458730015574e-01,2.325462000382638450e-01,2.402654856625421331e-01,0.000000000000000000e+00,3.097160190222687515e-01
3.333332222222631924e-01,2.523364368067081420e-01,2.197125245394634108e-01,2.039822999823792393e-01,0.000000000000000000e+00,3.141408409712666550e-01
3.333332222222631924e-01,2.523364368067081420e-01,2.633470212353849482e-01,2.407079635366904669e-01,0.000000000000000000e+00,3.185665502360411350e-01
3.333332222222631924e-01,2.523364368067081420e-01,2.828542079935615905e-01,2.584070785026235106e-01,0.000000000000000000e+00,3.229900412113740904e-01
3.333332222222631924e-01,2.570093337846092174e-01,3.157084172704907044e-01,2.867256624481165361e-01,0.000000000000000000e+00,3.274150849893161519e-01
3.333332222222631924e-01,2.990654065857288879e-01,3.398357272082355718e-01,3.079646004072362775e-01,0.000000000000000000e+00,3.318412379119789479e-01
3.333332222222631924e-01,2.990654065857288879e-01,4.122176570214699520e-01,3.743362815294855594e-01,0.000000000000000000e+00,3.362649507162560614e-01
3.999998666667134994e-01,3.411214793868452277e-01,4.640657060366237818e-01,4.225663698116532974e-01,0.000000000000000000e+00,3.406897726652539093e-01
3.333332222222631924e-01,2.990654065857288879e-01,4.589322358371035193e-01,4.168141574477248756e-01,0.000000000000000000e+00,3.451159255879167054e-01
3.333332222222631924e-01,3.271027884531386709e-01,4.486652954380632163e-01,4.057522105940167267e-01,0.000000000000000000e+00,3.495396383921938188e-01
3.333332222222631924e-01,3.598130672984528600e-01,4.568788477572954809e-01,4.146017680769834013e-01,0.000000000000000000e+00,3.539644603411917223e-01
3.333332222222631924e-01,3.457943763647496338e-01,5.241273073710097652e-01,4.761061925836008735e-01,0.000000000000000000e+00,3.583906132638545183e-01
3.333332222222631924e-01,3.691588612542583414e-01,5.939425020844840697e-01,5.398230064609601531e-01,0.000000000000000000e+00,3.628145478970757898e-01
3.333332222222631924e-01,3.691588612542583414e-01,6.237166292417011260e-01,5.654867231615631207e-01,0.000000000000000000e+00,3.672393698460736378e-01
3.333332222222631924e-01,3.457943763647496338e-01,6.339835696407414289e-01,5.747787585186779902e-01,0.000000000000000000e+00,3.716657445976805918e-01
3.333332222222631924e-01,3.457943763647496338e-01,6.221765881818450694e-01,5.646017674132663977e-01,0.000000000000000000e+00,3.760896792309018632e-01
3.333332222222631924e-01,3.598130672984528600e-01,5.882956848650119364e-01,5.349557498453285653e-01,0.000000000000000000e+00,3.805142793509556087e-01
3.333332222222631924e-01,3.925233461437670490e-01,5.708418861866433325e-01,5.199115021242853851e-01,0.000000000000000000e+00,3.849399886157300887e-01
3.333332222222631924e-01,3.925233461437670490e-01,5.995893193039564251e-01,5.446902630765917408e-01,0.000000000000000000e+00,3.893641450778955182e-01
3.333332222222631924e-01,3.831775521879648982e-01,6.196098530820849382e-01,5.619469001683765619e-01,0.000000000000000000e+00,3.937887451979492082e-01
3.333332222222631924e-01,3.925233461437670490e-01,5.913757669847241605e-01,5.367256613419217892e-01,0.000000000000000000e+00,3.982148981206120042e-01
3.333332222222631924e-01,3.925233461437670490e-01,5.564681696279868417e-01,5.053097322773905109e-01,0.000000000000000000e+00,4.026381672670008571e-01
3.333332222222631924e-01,3.971962431216714551e-01,5.800821325457795608e-01,5.376106170902185122e-01,0.000000000000000000e+00,4.070623237291662311e-01
3.333332222222631924e-01,3.925233461437670490e-01,5.903490729448200858e-01,5.362831834677734832e-01,0.000000000000000000e+00,4.114880329939407666e-01
3.666665444444824340e-01,4.018691400995725305e-01,5.657084159871232920e-01,5.137168118862087685e-01,0.000000000000000000e+00,4.159113021403295640e-01
3.999998666667134994e-01,4.392523159227878504e-01,5.790554385058755971e-01,5.261061923623620018e-01,0.000000000000000000e+00,4.203356804314391515e-01
3.333332222222631924e-01,3.971962431216714551e-01,5.949691961243882554e-01,5.402654843351083480e-01,0.000000000000000000e+00,4.247613896962136315e-01
3.333332222222631924e-01,3.971962431216714551e-01,6.190965060621330673e-01,5.615044222942281449e-01,0.000000000000000000e+00,4.291848806715465869e-01
3.333332222222631924e-01,4.299065219669856441e-01,6.560574914986782025e-01,5.955752186036493701e-01,0.000000000000000000e+00,4.336092589626561744e-01
3.333332222222631924e-01,4.112149340553780119e-01,6.806981484563751073e-01,6.190265459335108078e-01,0.000000000000000000e+00,4.380349682274306544e-01
3.333332222222631924e-01,3.925233461437670490e-01,6.930184769352235596e-01,6.296460149130708173e-01,0.000000000000000000e+00,4.424586810317077679e-01
3.333332222222631924e-01,4.299065219669856441e-01,6.437371630198298611e-01,5.831858381274963588e-01,0.000000000000000000e+00,4.468839466385939319e-01
3.333332222222631924e-01,4.392523159227878504e-01,6.344969166606935218e-01,5.743362806445297952e-01,0.000000000000000000e+00,4.513094340744243094e-01
3.333332222222631924e-01,4.392523159227878504e-01,6.411704279200697298e-01,5.805309708826061899e-01,0.000000000000000000e+00,4.557329250497572648e-01
3.333332222222631924e-01,4.392523159227878504e-01,6.360369577205494673e-01,5.756637142669746021e-01,0.000000000000000000e+00,4.601570815119226943e-01
3.333332222222631924e-01,4.392523159227878504e-01,6.688911669974786367e-01,6.070796433315059915e-01,0.000000000000000000e+00,4.645827907766971743e-01
3.333332222222631924e-01,4.392523159227878504e-01,6.909650888554154102e-01,6.278761034164773713e-01,0.000000000000000000e+00,4.690060599230859717e-01
3.333332222222631924e-01,4.392523159227878504e-01,7.114989696534961272e-01,6.455752183824106094e-01,0.000000000000000000e+00,4.734302163852514012e-01
3.333332222222631924e-01,4.392523159227878504e-01,7.422997908506171472e-01,6.721238908313101890e-01,0.000000000000000000e+00,4.778557038210817232e-01
3.333332222222631924e-01,4.392523159227878504e-01,7.813141643669705427e-01,7.084070765114730550e-01,0.000000000000000000e+00,4.822789729674705206e-01
3.333332222222631924e-01,4.532710068564944073e-01,8.039014332448592981e-01,7.296460144705928519e-01,0.000000000000000000e+00,4.867035730875242661e-01
3.333332222222631924e-01,4.719625947681020395e-01,7.453798729703293713e-01,6.752212359503484418e-01,0.000000000000000000e+00,4.911295041812429041e-01
3.333332222222631924e-01,4.719625947681020395e-01,7.248459921722485433e-01,6.654867227190852663e-01,0.000000000000000000e+00,4.955529951565758595e-01
3.333332222222631924e-01,4.859812857018085963e-01,7.813141643669705427e-01,7.517699081780092607e-01,0.000000000000000000e+00,4.999775952766296050e-01
3.333332222222631924e-01,4.859812857018085963e-01,8.218685789431797728e-01,8.097345096914401186e-01,0.000000000000000000e+00,5.044035263703482430e-01
3.333332222222631924e-01,4.859812857018085963e-01,8.090349034443794496e-01,7.747787576337222815e-01,0.000000000000000000e+00,5.088270173456812540e-01
3.333332222222631924e-01,4.859812857018085963e-01,7.700205299280261650e-01,6.986725632802098795e-01,0.000000000000000000e+00,5.132516174657348884e-01
3.333332222222631924e-01,4.859812857018085963e-01,7.571868544292257308e-01,6.853982270557600343e-01,0.000000000000000000e+00,5.176768830726211634e-01
3.333332222222631924e-01,4.766354917460031149e-01,7.587268954890816763e-01,6.880530943006499811e-01,0.000000000000000000e+00,5.221003740479540634e-01
3.333332222222631924e-01,4.859812857018085963e-01,7.715605709878821106e-01,7.004424747768032145e-01,0.000000000000000000e+00,5.265254178258961248e-01
3.333332222222631924e-01,4.859812857018085963e-01,7.818275113869224135e-01,7.097345101339180840e-01,0.000000000000000000e+00,5.309511270906706049e-01
3.999998666667134994e-01,4.953270796576140778e-01,7.843942464866825448e-01,7.106194658822146959e-01,0.000000000000000000e+00,5.353750617238918208e-01
3.333332222222631924e-01,5.046728736134162840e-01,7.207392160126324665e-01,6.535398201170804500e-01,0.000000000000000000e+00,5.398003273307780958e-01
3.333332222222631924e-01,5.046728736134162840e-01,7.217659100525365412e-01,6.544247758653770619e-01,0.000000000000000000e+00,5.442264802534408918e-01
3.333332222222631924e-01,4.859812857018085963e-01,7.089322345537361070e-01,6.433628290116688575e-01,0.000000000000000000e+00,5.486504148866621078e-01
3.333332222222631924e-01,4.766354917460031149e-01,7.746406531075943347e-01,7.274336250998511000e-01,0.000000000000000000e+00,5.530754586646041693e-01
3.333332222222631924e-01,4.859812857018085963e-01,7.910677577460588639e-01,7.911504389772104906e-01,0.000000000000000000e+00,5.575013897583227518e-01
3.333332222222631924e-01,5.280373585029283223e-01,8.085215564244274677e-01,7.951327398445453554e-01,0.000000000000000000e+00,5.619251025625998652e-01
3.999998666667134994e-01,5.327102554808293977e-01,7.982546160253870537e-01,7.358407047086694686e-01,0.000000000000000000e+00,5.663503681694861402e-01
3.333332222222631924e-01,5.327102554808293977e-01,7.777207352273063368e-01,7.066371650148798311e-01,0.000000000000000000e+00,5.707760774342606203e-01
3.999998666667134994e-01,5.186915645471228409e-01,8.069815153645714112e-01,7.318584038413344928e-01,0.000000000000000000e+00,5.752000120674818362e-01
4.666665111111637509e-01,5.560747403703381053e-01,8.003080041051952032e-01,7.265486693515544880e-01,0.000000000000000000e+00,5.796250558454238977e-01
3.333332222222631924e-01,5.327102554808293977e-01,8.177618027835638070e-01,7.415929170725976682e-01,0.000000000000000000e+00,5.840512087680866937e-01
3.333332222222631924e-01,5.327102554808293977e-01,7.499999961498975409e-01,6.796460146918318346e-01,0.000000000000000000e+00,5.884751434013079097e-01
3.999998666667134994e-01,5.420560494366315485e-01,7.058521524340239939e-01,6.402654838926306047e-01,0.000000000000000000e+00,5.928999653503058687e-01
4.666665111111637509e-01,5.560747403703381053e-01,6.694045140174307296e-01,6.075221212056544084e-01,0.000000000000000000e+00,5.973256746150803487e-01
3.999998666667134994e-01,5.654205343261435868e-01,7.823408584068745064e-01,7.088495543856214720e-01,0.000000000000000000e+00,6.017493874193574621e-01
5.333331555556140025e-01,6.074766071272599266e-01,8.762833630580937339e-01,7.938053062221003264e-01,0.000000000000000000e+00,6.061742093683553101e-01
4.999998333333948164e-01,6.074766071272599266e-01,9.378850054523359958e-01,8.526548634838280183e-01,0.000000000000000000e+00,6.105996968041856876e-01
3.999998666667134994e-01,5.794392252598501436e-01,9.055441431953586973e-01,9.004424738918473947e-01,0.000000000000000000e+00,6.150234096084628010e-01
4.666665111111637509e-01,5.794392252598501436e-01,8.655030756391013380e-01,8.924778721571775542e-01,0.000000000000000000e+00,6.194480097285164355e-01
4.666665111111637509e-01,5.934579161935533698e-01,8.490759710006366978e-01,8.694690227014644224e-01,0.000000000000000000e+00,6.238737189932909155e-01
5.333331555556140025e-01,6.074766071272599266e-01,8.182751498035156779e-01,8.221238901675933519e-01,0.000000000000000000e+00,6.282976536265122425e-01
5.333331555556140025e-01,5.841121222377512190e-01,8.131416796039956374e-01,8.845132704225076026e-01,0.000000000000000000e+00,6.327224755755100905e-01
4.666665111111637509e-01,5.981308131714577758e-01,8.008213511251471850e-01,9.606194647760200045e-01,0.000000000000000000e+00,6.371486284981728865e-01
6.333331222222953194e-01,6.214952980609664834e-01,7.905544107261067710e-01,8.716814120722061743e-01,0.000000000000000000e+00,6.415721194735058974e-01
4.666665111111637509e-01,5.514018433924370299e-01,7.802874703270664680e-01,7.309734480930378808e-01,0.000000000000000000e+00,6.459971632514479589e-01
5.666664777778450679e-01,5.794392252598501436e-01,7.299794623717688058e-01,6.615044218517502905e-01,0.000000000000000000e+00,6.504226506872782254e-01
3.999998666667134994e-01,5.747663282819457375e-01,7.202258689926803736e-01,6.530973422429320330e-01,0.000000000000000000e+00,6.548472508073319709e-01
4.999998333333948164e-01,6.401868859725741157e-01,7.546201193294655996e-01,6.827433598108700874e-01,0.000000000000000000e+00,6.592709636116090843e-01
4.333331888889326855e-01,6.355139889946730403e-01,8.013346981450992779e-01,7.269911472257029050e-01,0.000000000000000000e+00,6.636968947053277779e-01
3.999998666667134994e-01,6.308410920167719649e-01,8.218685789431797728e-01,7.451327400657843381e-01,0.000000000000000000e+00,6.681210511674930963e-01
5.666664777778450679e-01,6.588784738841817479e-01,8.382956835816443020e-01,7.592920320385309063e-01,0.000000000000000000e+00,6.725463167743793713e-01
5.666664777778450679e-01,6.588784738841817479e-01,8.634496875592932996e-01,7.823008814942439271e-01,0.000000000000000000e+00,6.769724696970421673e-01
5.333331555556140025e-01,6.542055769062806725e-01,8.352156014619325219e-01,7.566371647936408484e-01,0.000000000000000000e+00,6.813961825013192808e-01
5.333331555556140025e-01,6.542055769062806725e-01,7.895277166862028073e-01,7.168141561202913126e-01,0.000000000000000000e+00,6.858210044503171288e-01
5.666664777778450679e-01,6.588784738841817479e-01,7.962012279455790154e-01,7.230088463583679292e-01,0.000000000000000000e+00,6.902471573729799248e-01
5.999998000000642540e-01,6.635513708620861539e-01,8.234086200030358293e-01,7.464601736882292560e-01,0.000000000000000000e+00,6.946708701772570382e-01
5.999998000000642540e-01,6.635513708620861539e-01,7.967145749655311082e-01,7.230088463583679292e-01,0.000000000000000000e+00,6.990956921262548862e-01
5.999998000000642540e-01,6.635513708620861539e-01,7.802874703270664680e-01,7.097345101339180840e-01,0.000000000000000000e+00,7.035214013910293662e-01
5.333331555556140025e-01,6.822429587736937862e-01,7.972279219854829790e-01,7.238938021066646522e-01,0.000000000000000000e+00,7.079451141953064797e-01
6.666664444445146165e-01,6.869158557515948615e-01,8.300821312624122594e-01,7.522123860521575667e-01,0.000000000000000000e+00,7.123699361443044387e-01
6.666664444445146165e-01,6.728971648178883047e-01,8.182751498035156779e-01,7.420353949467460852e-01,0.000000000000000000e+00,7.167958672380230212e-01
6.666664444445146165e-01,6.728971648178883047e-01,7.633470186686498460e-01,6.924778730421332629e-01,0.000000000000000000e+00,7.212195800423001346e-01
6.666664444445146165e-01,6.728971648178883047e-01,7.233059511123925978e-01,6.641592890966402374e-01,0.000000000000000000e+00,7.256448456491862986e-01
5.999998000000642540e-01,6.869158557515948615e-01,7.530800782696095430e-01,7.221238906100713173e-01,0.000000000000000000e+00,7.300705549139607786e-01
6.666664444445146165e-01,7.196261345969090506e-01,8.311088253023161121e-01,7.615044214092724362e-01,0.000000000000000000e+00,7.344944895471821056e-01
5.999998000000642540e-01,7.196261345969090506e-01,8.598562584196292047e-01,7.796460142493538692e-01,0.000000000000000000e+00,7.389195333251241671e-01
6.666664444445146165e-01,7.196261345969090506e-01,8.336755604020763544e-01,7.601769877868275183e-01,0.000000000000000000e+00,7.433450207609544336e-01
6.666664444445146165e-01,7.196261345969090506e-01,7.787474292672104115e-01,7.570796426677891544e-01,0.000000000000000000e+00,7.477689553941757605e-01
6.666664444445146165e-01,7.102803406411035692e-01,7.751540001275462055e-01,8.575221200994596060e-01,0.000000000000000000e+00,7.521937773431736085e-01
6.666664444445146165e-01,6.822429587736937862e-01,7.233059511123925978e-01,7.809734478717988981e-01,0.000000000000000000e+00,7.566197084368921910e-01
6.666664444445146165e-01,7.056074436632024938e-01,6.858316186558952587e-01,6.827433598108700874e-01,0.000000000000000000e+00,7.610434212411693045e-01
6.666664444445146165e-01,7.757008983317319473e-01,7.145790517732082403e-01,6.486725635014488622e-01,0.000000000000000000e+00,7.654680213612230499e-01
6.666664444445146165e-01,8.551401469560669932e-01,7.987679630453391466e-01,7.243362799808128472e-01,0.000000000000000000e+00,7.698939524549417435e-01
6.666664444445146165e-01,9.626167774478150418e-01,8.567761762999169806e-01,8.172566335519617642e-01,0.000000000000000000e+00,7.743174434302746434e-01
6.666664444445146165e-01,9.999999532710303063e-01,8.809034862376620145e-01,9.128318543680006281e-01,0.000000000000000000e+00,7.787420435503283889e-01
6.666664444445146165e-01,9.719625714036171926e-01,9.425051286319039434e-01,9.274336242148953913e-01,0.000000000000000000e+00,7.831681964729911849e-01
6.666664444445146165e-01,9.205607046466953713e-01,9.999999948665297955e-01,9.999999955752212344e-01,0.000000000000000000e+00,7.875919092772682983e-01
6.666664444445146165e-01,9.532709834920095604e-01,9.635523564499368643e-01,8.716814120722061743e-01,0.000000000000000000e+00,7.920167312262662573e-01
6.666664444445146165e-01,9.532709834920095604e-01,9.132443484946388690e-01,8.283185804056699686e-01,0.000000000000000000e+00,7.964431059778731559e-01
6.666664444445146165e-01,9.439251895362040790e-01,8.716632398785253422e-01,7.902654832289137676e-01,0.000000000000000000e+00,8.008672624400385853e-01
6.666664444445146165e-01,8.831775288234801069e-01,8.588295643797249079e-01,7.783185806269089513e-01,0.000000000000000000e+00,8.052923062179806468e-01
6.666664444445146165e-01,8.411214560223604364e-01,8.234086200030358293e-01,7.464601736882292560e-01,0.000000000000000000e+00,8.097184591406434429e-01
7.333330888889766364e-01,8.504672499781658068e-01,8.280287431826042210e-01,7.508849524297125377e-01,0.000000000000000000e+00,8.141423937738646588e-01
8.333330555556461849e-01,8.598130439339680686e-01,8.485626239806848270e-01,7.690265452697940818e-01,0.000000000000000000e+00,8.185674375518067203e-01
8.999997000000964364e-01,8.457943530002647314e-01,8.547227882201089422e-01,8.066371645724019768e-01,0.000000000000000000e+00,8.229935904744695163e-01
7.999997333334269989e-01,8.317756620665581746e-01,8.588295643797249079e-01,8.358407042661916142e-01,0.000000000000000000e+00,8.274175251076907323e-01
9.999996666667777534e-01,8.598130439339680686e-01,8.018480451650511487e-01,7.725663682629805296e-01,0.000000000000000000e+00,8.318427907145768962e-01
9.666663444445466880e-01,8.504672499781658068e-01,7.654004067484579954e-01,6.964601739094682387e-01,0.000000000000000000e+00,8.362689436372396923e-01
9.999996666667777534e-01,8.551401469560669932e-01,7.156057458131122040e-01,7.738938018854256695e-01,0.000000000000000000e+00,8.406933219283493353e-01
9.999996666667777534e-01,8.504672499781658068e-01,7.274127272720086745e-01,8.482300847423447365e-01,0.000000000000000000e+00,8.451183657062912857e-01
9.999996666667777534e-01,8.177569711328516178e-01,7.520533842297054683e-01,8.853982261708042145e-01,0.000000000000000000e+00,8.495447404578982953e-01
9.999996666667777534e-01,8.130840741549505424e-01,7.361396266111930320e-01,7.889380496064687387e-01,0.000000000000000000e+00,8.539686750911195112e-01
9.999996666667777534e-01,8.130840741549505424e-01,7.438398319104732037e-01,7.181415897427363415e-01,0.000000000000000000e+00,8.583937188690615727e-01
9.999996666667777534e-01,8.130840741549505424e-01,7.089322345537361070e-01,6.845132713074634223e-01,0.000000000000000000e+00,8.628203154496126848e-01
9.999996666667777534e-01,8.130840741549505424e-01,7.304928093917206766e-01,6.730088465796068009e-01,0.000000000000000000e+00,8.672442500828339007e-01
9.999996666667777534e-01,8.130840741549505424e-01,7.027720703143117698e-01,6.407079617667790217e-01,0.000000000000000000e+00,8.716695156897201757e-01
9.999996666667777534e-01,8.130840741549505424e-01,7.161190928330642969e-01,6.553097316136736739e-01,0.000000000000000000e+00,8.760956686123828607e-01
9.999996666667777534e-01,8.130840741549505424e-01,6.976386001147917293e-01,6.389380502701855757e-01,0.000000000000000000e+00,8.805196032456041877e-01
9.999996666667777534e-01,8.130840741549505424e-01,7.109856226335440343e-01,6.712389350830134660e-01,0.000000000000000000e+00,8.849444251946020357e-01
9.999996666667777534e-01,8.130840741549505424e-01,6.991786411746476748e-01,6.592920324810086496e-01,0.000000000000000000e+00,8.893707999462090452e-01
9.999996666667777534e-01,8.084111771770461363e-01,6.714579020972387680e-01,6.216814131784007547e-01,0.000000000000000000e+00,8.937951782373185772e-01
9.999996666667777534e-01,8.037382801991450609e-01,6.493839802393019944e-01,6.022123867158744037e-01,0.000000000000000000e+00,8.982200001863164252e-01
9.999996666667777534e-01,8.130840741549505424e-01,6.124229948027568593e-01,5.867256611206828065e-01,0.000000000000000000e+00,9.026463749379234347e-01
9.999996666667777534e-01,8.130840741549505424e-01,6.232032822217490331e-01,6.876106164265016751e-01,0.000000000000000000e+00,9.070700877422005481e-01
9.999996666667777534e-01,7.897195892654385041e-01,6.072895246032365968e-01,6.349557494028505999e-01,0.000000000000000000e+00,9.114949096911983961e-01
9.999996666667777534e-01,7.663551043759297965e-01,6.370636517604536531e-01,6.190265459335108078e-01,0.000000000000000000e+00,9.159212844428052946e-01
9.999996666667777534e-01,7.897195892654385041e-01,6.375769987804056349e-01,5.774336257635679370e-01,0.000000000000000000e+00,9.203454409049707241e-01
9.999996666667777534e-01,7.757008983317319473e-01,6.447638570597339358e-01,5.831858381274963588e-01,0.000000000000000000e+00,9.247704846829127856e-01
9.999996666667777534e-01,7.663551043759297965e-01,6.098562597029967280e-01,5.548672541820033333e-01,0.000000000000000000e+00,9.291964157766314791e-01
9.999996666667777534e-01,7.663551043759297965e-01,6.175564650022768998e-01,5.601769886717832270e-01,0.000000000000000000e+00,9.336205722387969086e-01
9.999996666667777534e-01,7.663551043759297965e-01,5.954825431443401262e-01,5.411504400834051820e-01,0.000000000000000000e+00,9.380456160167388591e-01
9.999996666667777534e-01,7.663551043759297965e-01,6.103696067229485989e-01,5.539822984337066103e-01,0.000000000000000000e+00,9.424719907683458686e-01
9.999996666667777534e-01,7.663551043759297965e-01,5.965092371842442009e-01,5.517699090629649694e-01,0.000000000000000000e+00,9.468959254015670846e-01
9.999996666667777534e-01,7.663551043759297965e-01,6.016427073837644635e-01,5.659292010357115377e-01,0.000000000000000000e+00,9.513214128373974621e-01
9.999996666667777534e-01,7.663551043759297965e-01,5.826488676455396920e-01,5.632743337908215908e-01,0.000000000000000000e+00,9.557482312468926766e-01
9.999996666667777534e-01,7.663551043759297965e-01,5.631416808873631608e-01,5.455752188248883527e-01,0.000000000000000000e+00,9.601723877090581061e-01
9.999996666667777534e-01,7.663551043759297965e-01,5.487679643287065590e-01,5.115044225154671276e-01,0.000000000000000000e+00,9.645980969738325861e-01
9.999996666667777534e-01,7.663551043759297965e-01,5.503080053885627265e-01,4.982300862910172268e-01,0.000000000000000000e+00,9.690253590412161167e-01
9.999996666667777534e-01,7.663551043759297965e-01,5.610882928075550113e-01,5.212389357467303030e-01,0.000000000000000000e+00,9.734490718454932301e-01
9.999996666667777534e-01,7.663551043759297965e-01,5.626283338674110679e-01,5.384955728385151241e-01,0.000000000000000000e+00,9.778743374523793941e-01
9.999996666667777534e-01,7.663551043759297965e-01,5.544147815481788033e-01,5.584070771751897810e-01,0.000000000000000000e+00,9.823009340329305061e-01
9.999996666667777534e-01,7.663551043759297965e-01,5.451745351890425750e-01,5.646017674132663977e-01,0.000000000000000000e+00,9.867253123240401491e-01
9.999996666667777534e-01,7.663551043759297965e-01,5.682751510868832012e-01,5.340707940970319534e-01,0.000000000000000000e+00,9.911501342730379971e-01
9.999996666667777534e-01,7.663551043759297965e-01,5.682751510868832012e-01,5.163716791310987153e-01,0.000000000000000000e+00,9.955762871957007931e-01
9.999996666667777534e-01,7.663551043759297965e-01,5.318275126702900479e-01,4.823008828216774901e-01,0.000000000000000000e+00,9.999999999999779066e-01
